Cree el consolidado a partir de los microdatos con los que dispone, agrupando por las variables temporales que considere necesario — Agregar • UnalR
…
if (FALSE) {
# Observe las diferentes opciones que se le muestran por consola.
Agregar(formula = SEXO ~ YEAR + PERIODO, frecuencia = list("Year" = 2016:2021, "Period" = 1:3), df2)
}

Agregar(
  formula    = SEXO ~ YEAR + PERIODO,
  frecuencia = list("Year" = 2016:2021, "Period" = 1:3),
  intervalo  = list(c(2018, 1), c(2020, 3)),
  datos      = df2
)
#> # A tibble: 27 x 5
#>    Variable  YEAR PERIODO Clase           Total
#>    <chr>    <dbl>   <dbl> <fct>           <dbl>
#>  1 SEXO      2018       1 Hombre              1
#>  2 SEXO      2018       1 Mujer               1
#>  3 SEXO      2018       1 Sin Información     0
#>  4 SEXO      2018       2 Hombre              0
#>  5 SEXO      2018       2 Mujer               0
#>  6 SEXO      2018       2 Sin Información     0
#>  7 SEXO      2018       3 Hombre              0
#>  8 SEXO      2018       3 Mujer               0
#>  9 SEXO      2018       3 Sin Información     0
#> 10 SEXO      2019       1 Hombre              2
#> # ... with 17 more rows
…
